Session 7 Microreport: Gravier dataset PCA
…
We can see that the first two principle components are unable to separate the two prognosis classes.

Plot rotation matrix

We now extract the rotation matrix from gravier_PCA with the tidy() function, which returns a tibble. We transform the tibble with pivot_wide to have one column for each PCs and one row for each gene. However, if we try to plot now, we see a big smudge of color in the plot and nothing else, as we have 2905 genes of which the eigenvectors are plotted. To make a readable plot, we have to reduce the amount of genes we show. We take only the top 10 genes that have the greatest effect on the principal components. We calculate them by adding the absolute principal direction values (eigenvectors), because we are most interested in the genes showing the strongest associations with the principle components in both directions. We can use arrange(), which orders tibble rows according to the column values, and take the head(n=10) rows.

gravier_PCA |> 
  tidy(matrix = "rotation")

# A tibble: 488,040 × 3
   column    PC     value
   <chr>  <dbl>     <dbl>
 1 g2E09      1  0.0418  
 2 g2E09      2 -0.00674 
 3 g2E09      3  0.00314 
 4 g2E09      4  0.0286  
 5 g2E09      5 -0.00141 
 6 g2E09      6  0.000272
 7 g2E09      7 -0.0158  
 8 g2E09      8  0.0233  
 9 g2E09      9  0.0139  
10 g2E09     10  0.0263  
# ℹ 488,030 more rows
…
Variance explained

We extract the eigenvalues for calculating the variance explained by each principle component. We can see right away that even the first principle component can only explain around 8 percent of the data’s variability. We would need at least 77 principal components to explain 90 % of the variability, which is a substantial reduction in dimensions as compared to several thousands, however it does not make our data easier to plot.

gravier_PCA |> 
  tidy(matrix = "eigenvalues")

# A tibble: 168 × 4
      PC std.dev percent cumulative
   <dbl>   <dbl>   <dbl>      <dbl>
 1     1   15.5   0.0828     0.0828
 2     2   14.1   0.0684     0.151 
 3     3   12.0   0.0498     0.201 
 4     4   11.2   0.0429     0.244 
 5     5   10.5   0.0376     0.281 
 6     6    9.50  0.0310     0.312 
 7     7    9.32  0.0299     0.342 
 8     8    8.87  0.0271     0.369 
 9     9    8.08  0.0225     0.392 
10    10    7.77  0.0208     0.413 
# ℹ 158 more rows
…
